
L3S2BG.png
size: 2048,2048
format: RGBA8888
filter: Linear,Linear
repeat: none
clous copy
  rotate: false
  xy: 1223, 1371
  size: 285, 137
  orig: 285, 137
  offset: 0, 0
  index: -1
clous copy 3
  rotate: false
  xy: 1223, 1371
  size: 285, 137
  orig: 285, 137
  offset: 0, 0
  index: -1
clous copy 2
  rotate: false
  xy: 2, 625
  size: 222, 107
  orig: 222, 107
  offset: 0, 0
  index: -1
tree1
  rotate: false
  xy: 2, 734
  size: 1219, 325
  orig: 1219, 325
  offset: 0, 0
  index: -1
tree2
  rotate: false
  xy: 2, 1061
  size: 1219, 447
  orig: 1219, 447
  offset: 0, 0
  index: -1
