%YAML 1.1
%TAG !u! tag:unity3d.com,2011:
--- !u!162 &1
EditorUserSettings:
  m_ObjectHideFlags: 0
  serializedVersion: 4
  m_ConfigSettings:
    RecentlyUsedScenePath-0:
      value: 224247031146460929162a1a5f0647111b07142f3f67153328271820adc52c2cf0e605e1e63e3a2e2a4cfa320d2a18
      flags: 0
    RecentlyUsedScenePath-1:
      value: 224247031146460929162a1a5f0647111b07142f3f67153328271820adc52c39eff73aecd81c333d3407a1290a371526
      flags: 0
    RecentlyUsedScenePath-2:
      value: 224247031146460929162a1a5f0647111b07142f3f67153328271820adc52c39eff73aecd81b33307717e1351027
      flags: 0
    RecentlyUsedScenePath-3:
      value: 22424703114646680e0b0227036c6c0504113f2b212d363c2c305326ece92021
      flags: 0
    RecentlyUsedScenePath-4:
      value: 224247031146467120214c0303305a0405583b2b3e3c293f23693b0ba2d23135e3f422ecf5751c1a0130af1801330e71e704001fef
      flags: 0
    RecentlyUsedScenePath-5:
      value: 22424703114646680e0b0227036c731500121478623d28393930
      flags: 0
    RecentlyUsedScenePath-6:
      value: 22424703114646680e0b0227036c731500121479623d28393930
      flags: 0
    RecentlyUsedScenePath-7:
      value: 22424703114646680e0b0227036c73150012147b623d28393930
      flags: 0
    RecentlyUsedScenePath-8:
      value: 22424703114646642a23252c1937102f1a18192e1f2b233e2866313ce3e4073be7e933a7f234362820
      flags: 0
    RecentlyUsedScenePath-9:
      value: 224247031146466b021a0d361f107b3b59251d39233d3433283a5200f2ec352bead435fbe23f31722c0ce6281d
      flags: 0
    vcSharedLogLevel:
      value: 0d5e400f0650
      flags: 0
  m_VCAutomaticAdd: 1
  m_VCDebugCom: 0
  m_VCDebugCmd: 0
  m_VCDebugOut: 0
  m_SemanticMergeMode: 2
  m_VCShowFailedCheckout: 1
  m_VCOverwriteFailedCheckoutAssets: 1
  m_VCProjectOverlayIcons: 1
  m_VCHierarchyOverlayIcons: 1
  m_VCOtherOverlayIcons: 1
  m_VCAllowAsyncUpdate: 1
